…
## simulate

``` r
#start with a for loop

output = vector("list", length = 100)

for (i in 1:100) {
  output[[i]] = sim_mean_sd(samp_size = 30)
}

bind_rows(output)
```

    ## # A tibble: 100 × 2
    ##    mu_hat sigma_hat
    ##     <dbl>     <dbl>
    ##  1   2.71      2.99
    ##  2   1.21      2.68
    ##  3   2.03      2.32
    ##  4   1.69      2.84
    ##  5   2.00      2.95
    ##  6   1.59      2.56
    ##  7   2.47      2.77
    ##  8   1.60      2.86
    ##  9   1.66      2.89
    ## 10   1.11      2.73
    ## # ℹ 90 more rows
…
